%YAML 1.1
%TAG !u! tag:unity3d.com,2011:
--- !u!1001 &2675606155885121346
PrefabInstance:
  m_ObjectHideFlags: 0
  serializedVersion: 2
  m_Modification:
    m_TransformParent: {fileID: 0}
    m_Modifications:
    - target: {fileID: 6717828977506566360, guid: 2e1bf55d7c261194995035e04bf39f59,
        type: 3}
      propertyPath: m_Name
      value: Big_tony Variant
      objectReference: {fileID: 0}
    - target: {fileID: 6717828977506566360, guid: 2e1bf55d7c261194995035e04bf39f59,
        type: 3}
      propertyPath: m_IsActive
      value: 0
      objectReference: {fileID: 0}
    - target: {fileID: -779230612417335143, guid: 2e1bf55d7c261194995035e04bf39f59,
        type: 3}
      propertyPath: m_Simulated
      value: 1
      objectReference: {fileID: 0}
    - target: {fileID: -779230612417335143, guid: 2e1bf55d7c261194995035e04bf39f59,
        type: 3}
      propertyPath: m_BodyType
      value: 1
      objectReference: {fileID: 0}
    - target: {fileID: 6717828977506566362, guid: 2e1bf55d7c261194995035e04bf39f59,
        type: 3}
      propertyPath: m_FlipX
      value: 1
      objectReference: {fileID: 0}
    - target: {fileID: 6717828977506566363, guid: 2e1bf55d7c261194995035e04bf39f59,
        type: 3}
      propertyPath: m_LocalPosition.x
      value: -5.3
      objectReference: {fileID: 0}
    - target: {fileID: 6717828977506566363, guid: 2e1bf55d7c261194995035e04bf39f59,
        type: 3}
      propertyPath: m_LocalPosition.y
      value: 2.0435395
      objectReference: {fileID: 0}
    - target: {fileID: 6717828977506566363, guid: 2e1bf55d7c261194995035e04bf39f59,
        type: 3}
      propertyPath: m_LocalPosition.z
      value: 0
      objectReference: {fileID: 0}
    - target: {fileID: 6717828977506566363, guid: 2e1bf55d7c261194995035e04bf39f59,
        type: 3}
      propertyPath: m_LocalRotation.x
      value: 0
      objectReference: {fileID: 0}
    - target: {fileID: 6717828977506566363, guid: 2e1bf55d7c261194995035e04bf39f59,
        type: 3}
      propertyPath: m_LocalRotation.y
      value: 0
      objectReference: {fileID: 0}
    - target: {fileID: 6717828977506566363, guid: 2e1bf55d7c261194995035e04bf39f59,
        type: 3}
      propertyPath: m_LocalRotation.z
      value: 0
      objectReference: {fileID: 0}
    - target: {fileID: 6717828977506566363, guid: 2e1bf55d7c261194995035e04bf39f59,
        type: 3}
      propertyPath: m_LocalRotation.w
      value: 1
      objectReference: {fileID: 0}
    - target: {fileID: 6717828977506566363, guid: 2e1bf55d7c261194995035e04bf39f59,
        type: 3}
      propertyPath: m_RootOrder
      value: 0
      objectReference: {fileID: 0}
    - target: {fileID: 6717828977506566363, guid: 2e1bf55d7c261194995035e04bf39f59,
        type: 3}
      propertyPath: m_LocalEulerAnglesHint.x
      value: 0
      objectReference: {fileID: 0}
    - target: {fileID: 6717828977506566363, guid: 2e1bf55d7c261194995035e04bf39f59,
        type: 3}
      propertyPath: m_LocalEulerAnglesHint.y
      value: 0
      objectReference: {fileID: 0}
    - target: {fileID: 6717828977506566363, guid: 2e1bf55d7c261194995035e04bf39f59,
        type: 3}
      propertyPath: m_LocalEulerAnglesHint.z
      value: 0
      objectReference: {fileID: 0}
    - target: {fileID: 6717828977506566363, guid: 2e1bf55d7c261194995035e04bf39f59,
        type: 3}
      propertyPath: m_LocalScale.x
      value: 0.6
      objectReference: {fileID: 0}
    - target: {fileID: 6717828977506566363, guid: 2e1bf55d7c261194995035e04bf39f59,
        type: 3}
      propertyPath: m_LocalScale.y
      value: 0.6
      objectReference: {fileID: 0}
    - target: {fileID: 8701530702333613941, guid: 2e1bf55d7c261194995035e04bf39f59,
        type: 3}
      propertyPath: m_LocalPosition.x
      value: 1.56
      objectReference: {fileID: 0}
    - target: {fileID: 8701530702333613941, guid: 2e1bf55d7c261194995035e04bf39f59,
        type: 3}
      propertyPath: m_LocalScale.x
      value: 1
      objectReference: {fileID: 0}
    - target: {fileID: 8701530702333613941, guid: 2e1bf55d7c261194995035e04bf39f59,
        type: 3}
      propertyPath: m_LocalScale.y
      value: 1
      objectReference: {fileID: 0}
    - target: {fileID: 105723918660041317, guid: 2e1bf55d7c261194995035e04bf39f59,
        type: 3}
      propertyPath: m_FlipX
      value: 0
      objectReference: {fileID: 0}
    - target: {fileID: 7032142659657035847, guid: 2e1bf55d7c261194995035e04bf39f59,
        type: 3}
      propertyPath: m_BodyType
      value: 2
      objectReference: {fileID: 0}
    - target: {fileID: 5072095392537534962, guid: 2e1bf55d7c261194995035e04bf39f59,
        type: 3}
      propertyPath: speed
      value: 1
      objectReference: {fileID: 0}
    - target: {fileID: 5072095392537534962, guid: 2e1bf55d7c261194995035e04bf39f59,
        type: 3}
      propertyPath: pos.x
      value: 1.59
      objectReference: {fileID: 0}
    - target: {fileID: 5072095392537534962, guid: 2e1bf55d7c261194995035e04bf39f59,
        type: 3}
      propertyPath: pos.y
      value: 1.31
      objectReference: {fileID: 0}
    m_RemovedComponents: []
  m_SourcePrefab: {fileID: 100100000, guid: 2e1bf55d7c261194995035e04bf39f59, type: 3}
